{
  "images": [
    {
      "filename": "icon_20pt@2x.png",
      "size": "20x20",
      "scale": "2x",
      "idiom": "iphone"
    },
    {
      "filename": "icon_20pt@3x.png",
      "size": "20x20",
      "scale": "3x",
      "idiom": "iphone"
    },
    {
      "filename": "icon_29pt@2x.png",
      "size": "29x29",
      "scale": "2x",
      "idiom": "iphone"
    },
    {
      "filename": "icon_29pt@3x.png",
      "size": "29x29",
      "scale": "3x",
      "idiom": "iphone"
    },
    {
      "filename": "icon_40pt@2x.png",
      "size": "40x40",
      "scale": "2x",
      "idiom": "iphone"
    },
    {
      "filename": "Icon120.png",
      "size": "40x40",
      "scale": "3x",
      "idiom": "iphone"
    },
    {
      "filename": "icon_60pt@2x.png",
      "size": "60x60",
      "scale": "2x",
      "idiom": "iphone"
    },
    {
      "filename": "icon_60pt@3x.png",
      "size": "60x60",
      "scale": "3x",
      "idiom": "iphone"
    },
    {
      "filename": "icon_20pt.png",
      "size": "20x20",
      "scale": "1x",
      "idiom": "ipad"
    },
    {
      "filename": "icon_20pt@2x.png",
      "size": "20x20",
      "scale": "2x",
      "idiom": "ipad"
    },
    {
      "filename": "Icon29.png",
      "size": "29x29",
      "scale": "1x",
      "idiom": "ipad"
    },
    {
      "filename": "icon_29pt@2x.png",
      "size": "29x29",
      "scale": "2x",
      "idiom": "ipad"
    },
    {
      "filename": "icon_40pt.png",
      "size": "40x40",
      "scale": "1x",
      "idiom": "ipad"
    },
    {
      "filename": "icon_40pt@2x.png",
      "size": "40x40",
      "scale": "2x",
      "idiom": "ipad"
    },
    {
      "filename": "icon_83.5@2x.png",
      "size": "83.5x83.5",
      "scale": "2x",
      "idiom": "ipad"
    },
    {
      "filename": "icon_76pt.png",
      "size": "76x76",
      "scale": "1x",
      "idiom": "ipad"
    },
    {
      "filename": "icon_76pt@2x.png",
      "size": "76x76",
      "scale": "2x",
      "idiom": "ipad"
    },
    {
      "filename": "Icon.png",
      "size": "1024x1024",
      "scale": "1x",
      "idiom": "ios-marketing"
    },
    {
      "role": "notificationCenter",
      "size": "24x24",
      "subtype": "38mm",
      "scale": "2x",
      "idiom": "watch"
    },
    {
      "role": "notificationCenter",
      "size": "27.5x27.5",
      "subtype": "42mm",
      "scale": "2x",
      "idiom": "watch"
    },
    {
      "role": "companionSettings",
      "size": "29x29",
      "scale": "2x",
      "idiom": "watch"
    },
    {
      "role": "companionSettings",
      "size": "29x29",
      "scale": "3x",
      "idiom": "watch"
    },
    {
      "role": "appLauncher",
      "size": "40x40",
      "subtype": "38mm",
      "scale": "2x",
      "idiom": "watch"
    },
    {
      "role": "longLook",
      "size": "44x44",
      "subtype": "42mm",
      "scale": "2x",
      "idiom": "watch"
    },
    {
      "role": "quickLook",
      "size": "86x86",
      "subtype": "38mm",
      "scale": "2x",
      "idiom": "watch"
    },
    {
      "role": "quickLook",
      "size": "98x98",
      "subtype": "42mm",
      "scale": "2x",
      "idiom": "watch"
    },
    {
      "size": "16x16",
      "scale": "1x",
      "idiom": "mac"
    },
    {
      "size": "16x16",
      "scale": "2x",
      "idiom": "mac"
    },
    {
      "size": "32x32",
      "scale": "1x",
      "idiom": "mac"
    },
    {
      "size": "32x32",
      "scale": "2x",
      "idiom": "mac"
    },
    {
      "size": "128x128",
      "scale": "1x",
      "idiom": "mac"
    },
    {
      "size": "128x128",
      "scale": "2x",
      "idiom": "mac"
    },
    {
      "size": "256x256",
      "scale": "1x",
      "idiom": "mac"
    },
    {
      "size": "256x256",
      "scale": "2x",
      "idiom": "mac"
    },
    {
      "size": "512x512",
      "scale": "1x",
      "idiom": "mac"
    },
    {
      "size": "512x512",
      "scale": "2x",
      "idiom": "mac"
    }
  ],
  "info": {
    "version": 1,
    "author": "xcode"
  }
}